body {
    margin: 0;
    overflow: hidden;
    width: 100vw;
    height: 100vh;
    background-image: url("https://encrypted-tbn0.gstatic.com/images?q=tbn:ANd9GcSeqzkAzMotZ-TO-9VxOYqPj1H2LaK1X-U-3g&usqp=CAU");
    background-size: cover;
    backdrop-filter:  brightness(50%);
}

canvas {
    display: block;
}

#canvas_container {
    width: 100%;
    height: 100vh;
}

button {
    position: absolute;
    bottom: 5%;
    left: 50%;
    transform: translateX(-50%);
    border: 1px solid white;
    border-radius: 5px;
    font-size: 0.9rem;
    padding: 0.5rem 0.9em;
    background: #000000;
    color: white;
    -webkit-font-smoothing: antialiased;
    font-weight: bold;
    cursor: pointer;
    transition: all .3s;
}

button:hover {
    background: #ffffff;
    color: #000000;
}